684670 189315 509
553789 43377 470
1 999999 525
10000 10001 180
69 1 113
538866 359518 470
242 3060 217
194115 958355 525
98 7345 262
441138 17320 449
57 5212 238
430202 731600 509
900 1000 174
395375 598211 470
283 6750 262
268459 617142 470
265 7659 262
-3 200 0
998613 113947 525
262056 670778 509
1 9211 262
131 5693 238
-5 -99 0
184 3165 217
446703 655354 509
183 8889 262
201 210 89
500 2 144
617903 655689 509
175 541 144
57287 4227 340
284 454 144
96 3765 238
272 6758 262
107 9414 262
100 200 125
570499 862244 525
110 2723 209
236 8115 262
321536 8930 443
821059 59736 509
6 1629 182
520 33373 308
149 822 171
68 4377 238
1 1 1
20035 590862 470
4519 774146 509
285 2778 209
613090 696163 509
14 3369 217
253 2616 209
227 6187 262
361546 153564 443
144 8008 262
407 816261 509
308024 6553 443
99998 99999 227
268 8585 262
128 2302 183
530315 267469 470
1 10 20
286513 789324 509
104 7406 262
485942 123139 449
76 3376 217
180530 989360 525
203087 957537 525
108 685 145
499155 292839 449
267551 77485 443
239 652 145
45 -65 0
61777 86252 351
198 2311 183
539613 826609 509
55 5948 238
721348 63553 509
839937 361718 525
616 515028 470
16 2103 182
248 8289 262
848484 691157 525
5 6 9
280 1858 182
531971 238463 470
569949 322389 470
533444 503781 470
250 3248 217
218 9718 262
978324 965186 458
189 3313 217
214 7764 262
197 4713 238
216 1414 182
5 8 17
181 7981 262
864286 827007 525
223 6923 262
136 5867 238
35 517 144
35115 8156 311
535787 784101 509
23 23 16
18451 873411 525
41326 798925 509
213 2282 183
1 2 2
12 6498 262
999999 1 525
612467 5996 470
67827 636077 509
61 4100 238
666204 810025 504
39508 58323 340
225 4154 238
171 7782 262
406491 640718 509
